Cleaning up Data - Kelsey Ritchie's Github Site
…
After loading the data, we can see that we need to seperate the Result column and create two new columns. I’m going to name the new columns “Score” and “Outcome” while also separating the scores by the “-” symbol so we can make more sense of it.

badlogs %>% separate(Result, into=c("Outcome", "Score"), sep=(" "))

## # A tibble: 1,662 x 52
##     Game Date  HomeAway Opponent Outcome Score PassingCmp PassingAtt PassingPct
##    <dbl> <chr> <chr>    <chr>    <chr>   <chr>      <dbl>      <dbl>      <dbl>
##  1     1 8/24… N        Miami (… W       (24-…         17         27       63  
##  2     2 9/7/… <NA>     Tenness… W       (45-…         30         36       83.3
##  3     3 9/14… @        Kentucky W       (29-…         21         30       70  
##  4     4 9/21… <NA>     Tenness… W       (34-…         24         34       70.6
##  5     5 9/28… <NA>     Towson   W       (38-…         24         28       85.7
##  6     6 10/5… <NA>     Auburn   W       (24-…         25         39       64.1
##  7     7 10/1… @        Louisia… L       (28-…         24         44       54.5
##  8     8 10/1… @        South C… W       (38-…         21         33       63.6
##  9     9 11/2… N        Georgia  L       (17-…         21         33       63.6
## 10    10 11/9… <NA>     Vanderb… W       (56-…         27         40       67.5
## # … with 1,652 more rows, and 43 more variables: PassingYds <dbl>,
## #   PassingTD <dbl>, RushingAtt <dbl>, RushingYds <dbl>, RushingAvg <dbl>,
## #   RushingTD <dbl>, OffensivePlays <dbl>, OffensiveYards <dbl>,
## #   OffenseAvg <dbl>, FirstDownPass <dbl>, FirstDownRush <dbl>,
## #   FirstDownPen <dbl>, FirstDownTotal <dbl>, Penalties <dbl>,
## #   PenaltyYds <dbl>, Fumbles <dbl>, Interceptions <dbl>, TotalTurnovers <dbl>,
## #   TeamFull <chr>, TeamURL <chr>, DefPassingCmp <dbl>, DefPassingAtt <dbl>,
## #   DefPassingPct <dbl>, DefPassingYds <dbl>, DefPassingTD <dbl>,
## #   DefRushingAtt <dbl>, DefRushingYds <dbl>, DefRushingAvg <dbl>,
## #   DefRushingTD <dbl>, DefPlays <dbl>, DefYards <dbl>, DefAvg <dbl>,
## #   DefFirstDownPass <dbl>, DefFirstDownRush <dbl>, DefFirstDownPen <dbl>,
## #   DefFirstDownTotal <dbl>, DefPenalties <dbl>, DefPenaltyYds <dbl>,
## #   DefFumbles <dbl>, DefInterceptions <dbl>, DefTotalTurnovers <dbl>,
## #   Team <chr>, Conference <chr>

Now that I have split the result column into two new columns, I am going to use “gsub” to get rid of the two parenthesis in the score column.

badlogs %>% separate(Result, into=c("Outcome", "Score"), 
sep=" ") %>% mutate(Score=gsub("\\(", "",Score)) %>% mutate(Score=gsub(")", "",Score))

## # A tibble: 1,662 x 52
##     Game Date  HomeAway Opponent Outcome Score PassingCmp PassingAtt PassingPct
##    <dbl> <chr> <chr>    <chr>    <chr>   <chr>      <dbl>      <dbl>      <dbl>
##  1     1 8/24… N        Miami (… W       24-20         17         27       63  
##  2     2 9/7/… <NA>     Tenness… W       45-0          30         36       83.3
##  3     3 9/14… @        Kentucky W       29-21         21         30       70  
##  4     4 9/21… <NA>     Tenness… W       34-3          24         34       70.6
##  5     5 9/28… <NA>     Towson   W       38-0          24         28       85.7
##  6     6 10/5… <NA>     Auburn   W       24-13         25         39       64.1
##  7     7 10/1… @        Louisia… L       28-42         24         44       54.5
##  8     8 10/1… @        South C… W       38-27         21         33       63.6
##  9     9 11/2… N        Georgia  L       17-24         21         33       63.6
## 10    10 11/9… <NA>     Vanderb… W       56-0          27         40       67.5
## # … with 1,652 more rows, and 43 more variables: PassingYds <dbl>,
## #   PassingTD <dbl>, RushingAtt <dbl>, RushingYds <dbl>, RushingAvg <dbl>,
## #   RushingTD <dbl>, OffensivePlays <dbl>, OffensiveYards <dbl>,
## #   OffenseAvg <dbl>, FirstDownPass <dbl>, FirstDownRush <dbl>,
## #   FirstDownPen <dbl>, FirstDownTotal <dbl>, Penalties <dbl>,
## #   PenaltyYds <dbl>, Fumbles <dbl>, Interceptions <dbl>, TotalTurnovers <dbl>,
## #   TeamFull <chr>, TeamURL <chr>, DefPassingCmp <dbl>, DefPassingAtt <dbl>,
## #   DefPassingPct <dbl>, DefPassingYds <dbl>, DefPassingTD <dbl>,
## #   DefRushingAtt <dbl>, DefRushingYds <dbl>, DefRushingAvg <dbl>,
…
